lab5/pri_encoder/simulation/qsim/pre_encoder.msim.vcd
$comment
	File created using the following command:
		vcd file pre_encoder.msim.vcd -direction
$end
$date
	Wed Apr 10 21:26:20 2024
$end
$version
	ModelSim Version 10.5b
$end
$timescale
	1ps
$end

$scope module pre_encoder_vlg_vec_tst $end
$var reg 4 ! data [3:0] $end
$var wire 1 " code [1] $end
$var wire 1 # code [0] $end
$var wire 1 $ valid $end

$scope module i1 $end
$var wire 1 % gnd $end
$var wire 1 & vcc $end
$var wire 1 ' unknown $end
$var tri1 1 ( devclrn $end
$var tri1 1 ) devpor $end
$var tri1 1 * devoe $end
$var wire 1 + code[0]~output_o $end
$var wire 1 , code[1]~output_o $end
$var wire 1 - valid~output_o $end
$var wire 1 . data[2]~input_o $end
$var wire 1 / data[0]~input_o $end
$var wire 1 0 data[1]~input_o $end
$var wire 1 1 WideOr0~0_combout $end
$var wire 1 2 Equal0~0_combout $end
$var wire 1 3 data[3]~input_o $end
$var wire 1 4 Equal0~1_combout $end
$upscope $end
$upscope $end
$enddefinitions $end
#0
$dumpvars
b0 !
x#
x"
x$
0%
1&
x'
1(
1)
1*
x+
x,
x-
0.
0/
00
x1
x2
03
x4
$end
#3780
01
#3782
14
#3817
12
#7067
0-
0$
#7312
1+
1#
#7408
1,
1"
#60000
b1 !
#60630
1/
#64173
11
#64187
04
#64198
02
#67437
1-
1$
#67747
0+
0#
#67752
0,
0"
#120000
b11 !
b10 !
#120660
10
#120736
0/
#124516
01
#128048
1+
1#
#180000
b11 !
#180630
1/
#184173
11
#187747
0+
0#
#240000
b111 !
b101 !
b100 !
#240680
1.
#240736
0/
#240766
00
#244553
12
#248144
1,
1"
#300000
b101 !
#300630
1/
#304198
02
#307752
0,
0"
#360000
b111 !
b110 !
#360660
10
#360736
0/
#364516
01
#368048
1+
1#
#420000
b111 !
#420630
1/
#424173
11
#427747
0+
0#
#480000
b1111 !
b1011 !
b1001 !
b1000 !
#480680
13
#480736
0/
#480766
00
#480786
0.
#484516
01
#484553
12
#488048
1+
1#
#488144
1,
1"
#540000
b1001 !
#540630
1/
#544173
11
#544198
02
#547747
0+
0#
#547752
0,
0"
#600000
b1011 !
b1010 !
#600660
10
#600736
0/
#604516
01
#608048
1+
1#
#660000
b1011 !
#660630
1/
#664173
11
#667747
0+
0#
#720000
b1111 !
b1101 !
b1100 !
#720680
1.
#720736
0/
#720766
00
#724553
12
#728144
1,
1"
#780000
b1101 !
#780630
1/
#784198
02
#787752
0,
0"
#840000
b1111 !
b1110 !
#840660
10
#840736
0/
#844516
01
#848048
1+
1#
#900000
b1111 !
#900630
1/
#904173
11
#907747
0+
0#
#960000
b111 !
b11 !
b1 !
b0 !
#960736
0/
#960766
00
#960786
03
0.
#964516
01
#964518
14
#964553
12
#967803
0-
0$
#968048
1+
1#
#968144
1,
1"
