lab4/d_latch/simulation/qsim/d_latch.msim.vcd
$comment
	File created using the following command:
		vcd file d_latch.msim.vcd -direction
$end
$date
	Mon Apr 08 21:56:44 2024
$end
$version
	ModelSim Version 10.5b
$end
$timescale
	1ps
$end

$scope module d_latch_vlg_vec_tst $end
$var reg 1 ! din $end
$var reg 1 " en $end
$var wire 1 # qout $end

$scope module i1 $end
$var wire 1 $ gnd $end
$var wire 1 % vcc $end
$var wire 1 & unknown $end
$var tri1 1 ' devclrn $end
$var tri1 1 ( devpor $end
$var tri1 1 ) devoe $end
$var wire 1 * qout~output_o $end
$var wire 1 + din~input_o $end
$var wire 1 , en~input_o $end
$var wire 1 - qout$latch~combout $end
$upscope $end
$upscope $end
$enddefinitions $end
#0
$dumpvars
0!
0"
x#
0$
1%
x&
1'
1(
1)
x*
0+
0,
x-
$end
#40000
1!
#40689
1+
#120000
0!
#120795
0+
#160000
1"
#160639
1,
#161797
0-
#165178
0*
0#
#180000
1!
#180689
1+
#184173
1-
#187647
1*
1#
#220000
0!
#220795
0+
#224537
0-
#227918
0*
0#
#260000
1!
#260689
1+
#264173
1-
#267647
1*
1#
#300000
0!
#300795
0+
#304537
0-
#307918
0*
0#
#340000
1!
#340689
1+
#344173
1-
#347647
1*
1#
#380000
0"
#380745
0,
#420000
0!
#420795
0+
#520000
1!
#520689
1+
#580000
0!
#580795
0+
#640000
1!
#640689
1+
#720000
0!
#720795
0+
