lab4/shift4/simulation/qsim/shift4.msim.vcd
$comment
	File created using the following command:
		vcd file shift4.msim.vcd -direction
$end
$date
	Mon Apr 08 22:28:35 2024
$end
$version
	ModelSim Version 10.5b
$end
$timescale
	1ps
$end

$scope module shift4_vlg_vec_tst $end
$var reg 1 ! a $end
$var reg 1 " clk $end
$var wire 1 # b $end
$var wire 1 $ c $end
$var wire 1 % d $end
$var wire 1 & e $end

$scope module i1 $end
$var wire 1 ' gnd $end
$var wire 1 ( vcc $end
$var wire 1 ) unknown $end
$var tri1 1 * devclrn $end
$var tri1 1 + devpor $end
$var tri1 1 , devoe $end
$var wire 1 - b~output_o $end
$var wire 1 . c~output_o $end
$var wire 1 / d~output_o $end
$var wire 1 0 e~output_o $end
$var wire 1 1 clk~input_o $end
$var wire 1 2 clk~inputclkctrl_outclk $end
$var wire 1 3 a~input_o $end
$var wire 1 4 b~reg0feeder_combout $end
$var wire 1 5 b~reg0_q $end
$var wire 1 6 c~reg0feeder_combout $end
$var wire 1 7 c~reg0_q $end
$var wire 1 8 d~reg0feeder_combout $end
$var wire 1 9 d~reg0_q $end
$var wire 1 : e~reg0feeder_combout $end
$var wire 1 ; e~reg0_q $end
$upscope $end
$upscope $end
$enddefinitions $end
#0
$dumpvars
0!
0"
x#
x$
x%
x&
0'
1(
x)
1*
1+
1,
x-
x.
x/
x0
01
x2
03
x4
05
x6
07
x8
09
x:
0;
$end
#173
02
#490
0:
#491
06
#492
08
#3119
04
#3335
0-
0#
#3340
0/
0%
#3630
00
0&
#3703
0.
0$
#40000
1"
#40730
11
#40917
12
#80000
1!
0"
#80670
13
#80836
01
#81009
02
#83552
14
#120000
1"
#120730
11
#120917
12
#123283
15
#123717
16
#126608
1-
1#
#140000
0!
#140776
03
#143895
04
#160000
0"
#160836
01
#161009
02
#200000
1"
#200730
11
#200917
12
#203283
05
17
#203719
18
#203774
06
#206618
0-
0#
#206979
1.
1$
#240000
0"
#240836
01
#241009
02
#260000
1!
#260670
13
#263552
14
#280000
1"
#280730
11
#280917
12
#283283
15
07
19
#283716
1:
#283717
16
#283775
08
#286608
1-
1#
#286611
1/
1%
#286986
0.
0$
#300000
0!
#300776
03
#303895
04
#320000
0"
#320836
01
#321009
02
#360000
1"
#360730
11
#360917
12
#363283
05
17
09
1;
#363719
18
#363773
0:
#363774
06
#366618
0-
0#
#366623
0/
0%
#366904
10
1&
#366979
1.
1$
#400000
0"
#400836
01
#401009
02
#440000
1"
#440730
11
#440917
12
#443283
07
19
0;
#443716
1:
#443775
08
#446611
1/
1%
#446913
00
0&
#446986
0.
0$
#480000
0"
#480836
01
#481009
02
#520000
1"
#520730
11
#520917
12
#523283
09
1;
#523773
0:
#526623
0/
0%
#526904
10
1&
#560000
0"
#560836
01
#561009
02
#600000
1"
#600730
11
#600917
12
#603283
0;
#606913
00
0&
#640000
0"
#640836
01
#641009
02
#680000
1"
#680730
11
#680917
12
#720000
0"
#720836
01
#721009
02
#760000
1"
#760730
11
#760917
12
#800000
0"
#800836
01
#801009
02
#840000
1"
#840730
11
#840917
12
#880000
0"
#880836
01
#881009
02
#920000
1"
#920730
11
#920917
12
#960000
0"
#960836
01
