lab10/lcd_controller/simulation/qsim/lcd_controller.msim.vcd
$comment
	File created using the following command:
		vcd file lcd_controller.msim.vcd -direction
$end
$date
	Thu May 30 03:13:19 2024
$end
$version
	ModelSim Version 10.5b
$end
$timescale
	1ps
$end

$scope module lcd_controller_vlg_vec_tst $end
$var reg 1 ! CS $end
$var reg 1 " RS $end
$var reg 1 # clk $end
$var reg 8 $ data [7:0] $end
$var reg 1 % reset $end
$var reg 1 & start $end
$var wire 1 ' LCD_E $end
$var wire 1 ( LCD_RS $end
$var wire 1 ) LCD_RW $end
$var wire 1 * LCD_data [7] $end
$var wire 1 + LCD_data [6] $end
$var wire 1 , LCD_data [5] $end
$var wire 1 - LCD_data [4] $end
$var wire 1 . LCD_data [3] $end
$var wire 1 / LCD_data [2] $end
$var wire 1 0 LCD_data [1] $end
$var wire 1 1 LCD_data [0] $end
$var wire 1 2 done $end

$scope module i1 $end
$var wire 1 3 gnd $end
$var wire 1 4 vcc $end
$var wire 1 5 unknown $end
$var tri1 1 6 devclrn $end
$var tri1 1 7 devpor $end
$var tri1 1 8 devoe $end
$var wire 1 9 done~output_o $end
$var wire 1 : LCD_RS~output_o $end
$var wire 1 ; LCD_RW~output_o $end
$var wire 1 < LCD_E~output_o $end
$var wire 1 = LCD_data[0]~output_o $end
$var wire 1 > LCD_data[1]~output_o $end
$var wire 1 ? LCD_data[2]~output_o $end
$var wire 1 @ LCD_data[3]~output_o $end
$var wire 1 A LCD_data[4]~output_o $end
$var wire 1 B LCD_data[5]~output_o $end
$var wire 1 C LCD_data[6]~output_o $end
$var wire 1 D LCD_data[7]~output_o $end
$var wire 1 E clk~input_o $end
$var wire 1 F clk~inputclkctrl_outclk $end
$var wire 1 G start~input_o $end
$var wire 1 H CS~input_o $end
$var wire 1 I Selector0~0_combout $end
$var wire 1 J reset~input_o $end
$var wire 1 K reset~inputclkctrl_outclk $end
$var wire 1 L state.S0~q $end
$var wire 1 M Selector1~0_combout $end
$var wire 1 N state.S1~q $end
$var wire 1 O state.S2~feeder_combout $end
$var wire 1 P state.S2~q $end
$var wire 1 Q count[0]~0_combout $end
$var wire 1 R count[0]~5_combout $end
$var wire 1 S count[0]~6_combout $end
$var wire 1 T count[1]~7_combout $end
$var wire 1 U count[2]~3_combout $end
$var wire 1 V count[2]~2_combout $end
$var wire 1 W count[2]~4_combout $end
$var wire 1 X Equal0~1_combout $end
$var wire 1 Y count[3]~1_combout $end
$var wire 1 Z Equal0~0_combout $end
$var wire 1 [ Selector4~0_combout $end
$var wire 1 \ state.S3~q $end
$var wire 1 ] Selector3~0_combout $end
$var wire 1 ^ state.S4~q $end
$var wire 1 _ RS~input_o $end
$var wire 1 ` data[0]~input_o $end
$var wire 1 a data[1]~input_o $end
$var wire 1 b data[2]~input_o $end
$var wire 1 c data[3]~input_o $end
$var wire 1 d data[4]~input_o $end
$var wire 1 e data[5]~input_o $end
$var wire 1 f data[6]~input_o $end
$var wire 1 g data[7]~input_o $end
$var wire 1 h count [3] $end
$var wire 1 i count [2] $end
$var wire 1 j count [1] $end
$var wire 1 k count [0] $end
$upscope $end
$upscope $end
$enddefinitions $end
#0
$dumpvars
1!
0"
0#
b0 $
0%
0&
x'
x(
0)
x1
x0
x/
x.
x-
x,
x+
x*
x2
03
14
x5
16
17
18
x9
x:
0;
x<
x=
x>
x?
x@
xA
xB
xC
xD
0E
xF
0G
1H
xI
0J
xK
0L
xM
0N
xO
0P
xQ
xR
xS
xT
xU
xV
xW
xX
xY
xZ
x[
0\
x]
0^
0_
0`
0a
0b
0c
0d
0e
0f
0g
0k
0j
0i
0h
$end
#173
0F
0K
#657
1X
#716
0]
0Q
#783
0O
#813
1Z
#831
0[
#841
0V
#886
1S
#1038
1U
#1213
0W
#1232
0T
#1252
0Y
#1446
0R
#3368
0<
0'
#3498
09
02
#3500
0I
0M
#6109
0@
0.
#6112
0?
0/
#6139
0D
0*
#6158
0:
0(
#6169
0A
0-
#6211
0=
01
#6214
0>
00
#6227
0C
0+
#7699
0B
0,
#10000
1#
#10730
1E
#10917
1F
#20000
1%
0#
#20720
1J
#20836
0E
#20907
1K
#21009
0F
#21728
0U
#30000
1#
#30730
1E
#30917
1F
#40000
1&
0#
#40640
1G
#40836
0E
#41009
0F
#43857
1M
#43858
1I
#50000
1#
#50730
1E
#50917
1F
#60000
0#
#60836
0E
#61009
0F
#70000
1#
#70730
1E
#70917
1F
#80000
0%
0#
#80826
0J
#80836
0E
#80999
0K
#81009
0F
#81864
1U
#90000
1#
#90730
1E
#90917
1F
#93340
1L
1N
#93735
0M
#94113
1O
#100000
0&
0#
#100746
0G
#100836
0E
#101009
0F
#110000
1#
#110730
1E
#110917
1F
#113340
0N
1P
#113775
1Q
#114070
1[
#114083
0S
#114123
0O
#114324
1Y
#114459
1R
#114468
1T
#120000
0#
#120836
0E
#121009
0F
#130000
1#
#130730
1E
#130917
1F
#133340
0P
1k
1j
1h
1\
#133758
0Z
#133946
1]
#134074
0U
#134077
0X
#134171
0]
#134172
0R
#134213
0Y
#134734
1Y
#136693
1<
1'
#140000
0#
#140836
0E
#141009
0F
#150000
1#
#150730
1E
#150917
1F
#153340
0k
#153749
1R
#154192
0T
#160000
0#
#160836
0E
#161009
0F
#170000
1#
#170730
1E
#170917
1F
#173340
1k
0j
#173769
0R
#180000
0#
#180836
0E
#181009
0F
#190000
1#
#190730
1E
#190917
1F
#193340
0k
#193749
1R
#194152
1X
#194153
1U
#194190
1T
#194645
1W
#194775
0Y
#200000
0#
#200836
0E
#201009
0F
#210000
1#
#210730
1E
#210917
1F
#213340
1k
1j
1i
0h
#213769
0R
#214077
0X
#220000
0#
#220836
0E
#221009
0F
#230000
1#
#230730
1E
#230917
1F
#233340
0k
#233749
1R
#234192
0T
#240000
0#
#240836
0E
#241009
0F
#250000
1#
#250730
1E
#250917
1F
#253340
1k
0j
#253769
0R
#260000
0#
#260836
0E
#261009
0F
#270000
1#
#270730
1E
#270917
1F
#273340
0k
#273749
1R
#274179
0U
#274190
1T
#274696
0W
#280000
0#
#280836
0E
#281009
0F
#290000
1#
#290730
1E
#290917
1F
#293340
1k
1j
0i
#293769
0R
#300000
0#
#300836
0E
#301009
0F
#310000
1#
#310730
1E
#310917
1F
#313340
0k
#313749
1R
#314192
0T
#320000
0#
#320836
0E
#321009
0F
#330000
1#
#330730
1E
#330917
1F
#333340
1k
0j
#333769
0R
#340000
0#
#340836
0E
#341009
0F
#350000
1#
#350730
1E
#350917
1F
#353340
0k
#353749
1R
#353861
1Z
#354152
1X
#354153
1U
#354190
1T
#354237
0[
#354238
0R
#354252
1]
#354253
1S
#354599
0T
#360000
0#
#360836
0E
#361009
0F
#370000
1#
#370730
1E
#370917
1F
#373340
0\
1^
#374056
0]
0Q
#374104
0I
#374234
1R
#374280
1Y
#374592
0Y
#374786
0R
#376708
0<
0'
#376860
19
12
#380000
0#
#380836
0E
#381009
0F
#390000
1#
#390730
1E
#390917
1F
#393340
0L
0^
#396838
09
02
#400000
0#
#400836
0E
#401009
0F
#410000
1#
#410730
1E
#410917
1F
#420000
0#
#420836
0E
#421009
0F
#430000
1#
#430730
1E
#430917
1F
#440000
0#
#440836
0E
#441009
0F
#450000
1#
#450730
1E
#450917
1F
#460000
0#
#460836
0E
#461009
0F
#470000
1#
#470730
1E
#470917
1F
#480000
0#
#480836
0E
#481009
0F
#490000
1#
#490730
1E
#490917
1F
#500000
0#
#500836
0E
#501009
0F
#510000
1#
#510730
1E
#510917
1F
#520000
0#
#520836
0E
#521009
0F
#530000
1#
#530730
1E
#530917
1F
#540000
0#
#540836
0E
#541009
0F
#550000
1#
#550730
1E
#550917
1F
#560000
0#
#560836
0E
#561009
0F
#570000
1#
#570730
1E
#570917
1F
#580000
0#
#580836
0E
#581009
0F
#590000
1#
#590730
1E
#590917
1F
#600000
0#
#600836
0E
#601009
0F
#610000
1#
#610730
1E
#610917
1F
#620000
0#
#620836
0E
#621009
0F
#630000
1#
#630730
1E
#630917
1F
#640000
0#
#640836
0E
#641009
0F
#650000
1#
#650730
1E
#650917
1F
#660000
0#
#660836
0E
#661009
0F
#670000
1#
#670730
1E
#670917
1F
#680000
0#
#680836
0E
#681009
0F
#690000
1#
#690730
1E
#690917
1F
#700000
0#
#700836
0E
#701009
0F
#710000
1#
#710730
1E
#710917
1F
#720000
0#
#720836
0E
#721009
0F
#730000
1#
#730730
1E
#730917
1F
#740000
0#
#740836
0E
#741009
0F
#750000
1#
#750730
1E
#750917
1F
#760000
0#
#760836
0E
#761009
0F
#770000
1#
#770730
1E
#770917
1F
#780000
0#
#780836
0E
#781009
0F
#790000
1#
#790730
1E
#790917
1F
#800000
0#
#800836
0E
#801009
0F
#810000
1#
#810730
1E
#810917
1F
#820000
0#
#820836
0E
#821009
0F
#830000
1#
#830730
1E
#830917
1F
#840000
0#
#840836
0E
#841009
0F
#850000
1#
#850730
1E
#850917
1F
#860000
0#
#860836
0E
#861009
0F
#870000
1#
#870730
1E
#870917
1F
#880000
0#
#880836
0E
#881009
0F
#890000
1#
#890730
1E
#890917
1F
#900000
0#
#900836
0E
#901009
0F
#910000
1#
#910730
1E
#910917
1F
#920000
0#
#920836
0E
#921009
0F
#930000
1#
#930730
1E
#930917
1F
#940000
0#
#940836
0E
#941009
0F
#950000
1#
#950730
1E
#950917
1F
#960000
0#
#960836
0E
#961009
0F
#970000
1#
#970730
1E
#970917
1F
#980000
0#
#980836
0E
#981009
0F
#990000
1#
#990730
1E
