lab8/smul/simulation/qsim/smul.msim.vcd
$comment
	File created using the following command:
		vcd file smul.msim.vcd -direction
$end
$date
	Wed May 15 22:13:19 2024
$end
$version
	ModelSim Version 10.5b
$end
$timescale
	1ps
$end

$scope module smul_vlg_vec_tst $end
$var reg 1 ! clk $end
$var reg 1 " reset $end
$var reg 1 # start $end
$var reg 4 $ word1 [3:0] $end
$var reg 4 % word2 [3:0] $end
$var wire 1 & product [7] $end
$var wire 1 ' product [6] $end
$var wire 1 ( product [5] $end
$var wire 1 ) product [4] $end
$var wire 1 * product [3] $end
$var wire 1 + product [2] $end
$var wire 1 , product [1] $end
$var wire 1 - product [0] $end
$var wire 1 . ready $end

$scope module i1 $end
$var wire 1 / gnd $end
$var wire 1 0 vcc $end
$var wire 1 1 unknown $end
$var tri1 1 2 devclrn $end
$var tri1 1 3 devpor $end
$var tri1 1 4 devoe $end
$var wire 1 5 product[0]~output_o $end
$var wire 1 6 product[1]~output_o $end
$var wire 1 7 product[2]~output_o $end
$var wire 1 8 product[3]~output_o $end
$var wire 1 9 product[4]~output_o $end
$var wire 1 : product[5]~output_o $end
$var wire 1 ; product[6]~output_o $end
$var wire 1 < product[7]~output_o $end
$var wire 1 = ready~output_o $end
$var wire 1 > clk~input_o $end
$var wire 1 ? clk~inputclkctrl_outclk $end
$var wire 1 @ start~input_o $end
$var wire 1 A reset~input_o $end
$var wire 1 B count[0]~2_combout $end
$var wire 1 C count[1]~0_combout $end
$var wire 1 D count[1]~1_combout $end
$var wire 1 E state~0_combout $end
$var wire 1 F state~q $end
$var wire 1 G word2[0]~input_o $end
$var wire 1 H word2[1]~input_o $end
$var wire 1 I word2[2]~input_o $end
$var wire 1 J addshift~0_combout $end
$var wire 1 K word2[3]~input_o $end
$var wire 1 L product~4_combout $end
$var wire 1 M load~combout $end
$var wire 1 N word1[3]~input_o $end
$var wire 1 O Add0~11_combout $end
$var wire 1 P word1[2]~input_o $end
$var wire 1 Q Add0~8_combout $end
$var wire 1 R word1[1]~input_o $end
$var wire 1 S Add0~5_combout $end
$var wire 1 T word1[0]~input_o $end
$var wire 1 U Add0~0_combout $end
$var wire 1 V Equal0~0_combout $end
$var wire 1 W Add0~2_cout $end
$var wire 1 X Add0~4 $end
$var wire 1 Y Add0~7 $end
$var wire 1 Z Add0~10 $end
$var wire 1 [ Add0~13 $end
$var wire 1 \ Add0~14_combout $end
$var wire 1 ] product~10_combout $end
$var wire 1 ^ product[7]~reg0_q $end
$var wire 1 _ Add0~12_combout $end
$var wire 1 ` product~9_combout $end
$var wire 1 a product~1_combout $end
$var wire 1 b product[6]~reg0_q $end
$var wire 1 c Add0~9_combout $end
$var wire 1 d product~8_combout $end
$var wire 1 e product[5]~reg0_q $end
$var wire 1 f Add0~6_combout $end
$var wire 1 g product~7_combout $end
$var wire 1 h product[4]~reg0_q $end
$var wire 1 i Add0~3_combout $end
$var wire 1 j product~5_combout $end
$var wire 1 k product~6_combout $end
$var wire 1 l product[3]~reg0_q $end
$var wire 1 m product~3_combout $end
$var wire 1 n product[2]~reg0_q $end
$var wire 1 o product~2_combout $end
$var wire 1 p product[1]~reg0_q $end
$var wire 1 q product~0_combout $end
$var wire 1 r product[0]~reg0_q $end
$var wire 1 s ready~0_combout $end
$var wire 1 t multiplicand [3] $end
$var wire 1 u multiplicand [2] $end
$var wire 1 v multiplicand [1] $end
$var wire 1 w multiplicand [0] $end
$var wire 1 x count [1] $end
$var wire 1 y count [0] $end
$upscope $end
$upscope $end
$enddefinitions $end
#0
$dumpvars
0!
0"
0#
b0 $
b0 %
x-
x,
x+
x*
x)
x(
x'
x&
x.
0/
10
x1
12
13
14
x5
x6
x7
x8
x9
x:
x;
x<
x=
0>
x?
0@
0A
xB
xC
xD
xE
0F
0G
0H
0I
xJ
0K
xL
xM
0N
xO
0P
xQ
0R
xS
0T
xU
xV
xW
xX
xY
xZ
x[
x\
x]
0^
x_
x`
xa
0b
xc
xd
0e
xf
xg
0h
xi
xj
xk
0l
xm
0n
xo
0p
xq
0r
xs
0w
0v
0u
0t
0y
0x
$end
#173
0?
#522
0O
#523
0S
#526
0Q
#637
0j
#649
0J
#836
0U
#855
0V
#942
0W
#1008
1X
#1014
1C
#1170
0Y
#1210
0`
#1211
0d
#1214
0g
#1305
1Z
#1322
0[
#1520
0f
#1548
0i
#1555
0]
#1682
0c
#1817
0_
#1834
0\
#3697
0M
#3712
0;
0'
#3718
08
0*
#3777
0<
0&
#3836
0o
#3856
0s
#3887
0m
#3919
05
0-
#3996
0B
#4041
0q
#4045
0L
#4056
06
0,
#4098
0E
#4103
0a
#4110
07
0+
#4149
0:
0(
#4340
0D
#5100
09
0)
#5120
0k
#7662
0=
0.
#40000
1!
#40730
1>
#40917
1?
#60000
1"
1#
b1000 $
b1100 $
b1101 $
b1000 %
b1010 %
b1011 %
#60629
1T
#60639
1N
#60649
1P
1G
1A
#60659
1K
#60669
1@
#60679
1H
#64122
1M
#64257
1s
#64445
1o
#64463
1E
#64467
1a
#64570
1q
#64579
1L
#65277
1B
#65315
1D
#65664
1k
#68194
1=
1.
#80000
0!
#80836
0>
#81009
0?
#120000
1!
#120730
1>
#120917
1?
#123314
1w
1u
1t
1y
1x
1F
1l
#123315
1p
1r
#123723
1U
#123743
0M
#123779
1V
#124011
1Q
#124013
1O
#124202
0B
#124256
0s
#124272
1J
#124398
1i
#124548
1\
#124567
1m
#124578
0L
#124587
0o
#124687
1c
#124842
1_
#125160
1]
#125232
1d
#125371
1`
#127081
18
1*
#127310
15
1-
#127434
16
1,
#128062
0=
0.
#160000
0#
b101 $
b1 $
b0 $
b11 %
b1 %
b0 %
0!
#160735
0T
#160745
0N
#160755
0P
0G
#160765
0K
#160775
0@
#160785
0H
#160836
0>
#161009
0?
#200000
1!
#200730
1>
#200917
1?
#203314
0y
1^
#203315
1b
1e
1n
0p
#203723
1B
#203751
1o
#203804
0q
#203963
0C
#204174
0Z
#204243
0c
#204264
1f
#204478
0\
#204482
0D
#204548
1[
#204772
0d
#204811
1g
#204846
0]
#205084
1\
#205444
1]
#207088
1;
1'
#207139
1<
1&
#207371
06
0,
#207489
17
1+
#207553
1:
1(
#240000
0!
#240836
0>
#241009
0?
#280000
1!
#280730
1>
#280917
1?
#283314
1y
0x
#283315
0e
1h
1p
0r
#283743
0B
#283748
1q
#283964
0J
#284107
1j
#284300
0f
#284389
0X
#284458
0i
#284529
0g
#284530
1d
#284925
1f
#287234
05
0-
#287434
16
1,
#287464
0:
0(
#288366
19
1)
#320000
0!
#320836
0>
#321009
0?
#360000
1!
#360730
1>
#360917
1?
#363314
0y
#363315
1e
0h
1r
#363723
1B
#363844
0U
#363882
1J
#363964
0E
#363979
1C
#364020
0j
#364046
1g
#364103
1S
#364110
0Q
#364169
0V
#364231
0O
#364250
0f
#364355
1Y
#364405
0d
#364563
1X
#364564
0k
#364757
0\
#364781
0g
#364803
0B
#364947
1W
#365063
0_
#365125
0]
#365483
1i
#365569
0`
#365975
1k
#367310
15
1-
#367553
1:
1(
#368415
09
0)
#400000
0!
#400836
0>
#401009
0?
#440000
1!
#440730
1>
#440917
1?
#443314
0F
0^
#443315
0b
0e
#443837
0S
#443852
1O
#443856
1Q
#444159
1U
#444256
0W
#444268
0Y
#444306
0a
#444316
0J
#444333
1s
#444334
1Z
#444400
0[
#444638
1L
#444804
1c
#444870
1_
#444936
1\
#445194
0k
#445723
1k
#447027
0;
0'
#447091
0<
0&
#447464
0:
0(
#448270
1=
1.
#480000
0!
#480836
0>
#481009
0?
#520000
1!
#520730
1>
#520917
1?
#560000
0!
#560836
0>
#561009
0?
#600000
1!
#600730
1>
#600917
1?
#640000
0!
#640836
0>
#641009
0?
#680000
1!
#680730
1>
#680917
1?
#720000
0!
#720836
0>
#721009
0?
#760000
1!
#760730
1>
#760917
1?
#800000
0!
#800836
0>
#801009
0?
#840000
1!
#840730
1>
#840917
1?
#880000
0!
#880836
0>
#881009
0?
#920000
1!
#920730
1>
#920917
1?
#960000
0!
#960836
0>
#961009
0?
#980000
0"
#980755
0A
#984611
0s
#988417
0=
0.
