lab4/D_FF/simulation/qsim/D_FF.msim.vcd
$comment
	File created using the following command:
		vcd file D_FF.msim.vcd -direction
$end
$date
	Mon Apr 08 22:56:29 2024
$end
$version
	ModelSim Version 10.5b
$end
$timescale
	1ps
$end

$scope module D_FF_vlg_vec_tst $end
$var reg 1 ! clk $end
$var reg 1 " d $end
$var reg 1 # reset $end
$var reg 1 $ set $end
$var wire 1 % q $end
$var wire 1 & qbar $end

$scope module i1 $end
$var wire 1 ' gnd $end
$var wire 1 ( vcc $end
$var wire 1 ) unknown $end
$var tri1 1 * devclrn $end
$var tri1 1 + devpor $end
$var tri1 1 , devoe $end
$var wire 1 - q~output_o $end
$var wire 1 . qbar~output_o $end
$var wire 1 / clk~input_o $end
$var wire 1 0 d~input_o $end
$var wire 1 1 reset~input_o $end
$var wire 1 2 set~input_o $end
$var wire 1 3 q~0_combout $end
$var wire 1 4 q~reg0_q $end
$upscope $end
$upscope $end
$enddefinitions $end
#0
$dumpvars
0!
0"
0#
0$
x%
x&
0'
1(
x)
1*
1+
1,
x-
x.
0/
00
01
02
x3
04
$end
#3617
1.
1&
#3619
03
#3667
0-
0%
#20000
1"
1#
#20669
11
10
#24037
13
#40000
1!
0#
#40689
1/
#40775
01
#42443
14
#44394
03
#46130
0.
0&
#46180
1-
1%
#60000
1#
#60669
11
#64037
13
#80000
0!
0#
#80775
01
#80795
0/
#84394
03
#100000
0"
1#
#100669
11
#100775
00
#104037
13
#120000
1!
0#
#120689
1/
#120775
01
#124394
03
#140000
1"
1#
#140669
11
10
#144037
13
#160000
0!
0#
#160775
01
#160795
0/
#164394
03
#180000
1#
#180669
11
#184037
13
#200000
1!
0#
#200689
1/
#200775
01
#204394
03
#220000
1#
#220669
11
#224037
13
#240000
0!
0#
#240775
01
#240795
0/
#244394
03
#260000
1$
#260669
12
#280000
1!
#280689
1/
#282443
04
#286060
1.
1&
#286110
0-
0%
#300000
0"
#300775
00
#320000
0!
#320795
0/
#360000
1!
#360689
1/
#400000
0!
#400795
0/
#420000
1"
#420669
10
#440000
1!
#440689
1/
#460000
0"
#460775
00
#480000
0!
#480795
0/
#500000
1"
#500669
10
#520000
0$
1!
#520689
1/
#520775
02
#560000
0!
#560795
0/
#600000
0"
1!
#600689
1/
#600775
00
#640000
0!
#640795
0/
#660000
1#
#660669
11
#664037
13
#680000
1$
1!
0#
#680669
12
#680689
1/
#680775
01
#682443
14
#683838
03
#686130
0.
0&
#686180
1-
1%
#700000
1#
#700669
11
#720000
0!
0#
#720775
01
#720795
0/
#740000
1#
#740669
11
#760000
1!
0#
#760689
1/
#760775
01
#762443
04
#766060
1.
1&
#766110
0-
0%
#780000
1#
#780669
11
#800000
0!
0#
#800775
01
#800795
0/
#820000
1#
#820669
11
#840000
1!
0#
#840689
1/
#840775
01
#860000
1#
#860669
11
#880000
0$
0!
0#
#880775
01
02
#880795
0/
#900000
1#
#900669
11
#904037
13
#920000
1!
0#
#920689
1/
#920775
01
#922443
14
#924394
03
#926130
0.
0&
#926180
1-
1%
#940000
1#
#940669
11
#944037
13
#960000
0!
0#
#960775
01
#960795
0/
#964394
03
#980000
1#
#980669
11
#984037
13
