lab9/sdiv/simulation/qsim/sdiv.msim.vcd
$comment
	File created using the following command:
		vcd file sdiv.msim.vcd -direction
$end
$date
	Thu May 23 01:23:48 2024
$end
$version
	ModelSim Version 10.5b
$end
$timescale
	1ps
$end

$scope module sdiv_vlg_vec_tst $end
$var reg 1 ! clk $end
$var reg 1 " reset $end
$var reg 1 # start $end
$var reg 8 $ word1 [7:0] $end
$var reg 4 % word2 [3:0] $end
$var wire 1 & quotient [3] $end
$var wire 1 ' quotient [2] $end
$var wire 1 ( quotient [1] $end
$var wire 1 ) quotient [0] $end
$var wire 1 * ready $end
$var wire 1 + remainder [3] $end
$var wire 1 , remainder [2] $end
$var wire 1 - remainder [1] $end
$var wire 1 . remainder [0] $end

$scope module i1 $end
$var wire 1 / gnd $end
$var wire 1 0 vcc $end
$var wire 1 1 unknown $end
$var tri1 1 2 devclrn $end
$var tri1 1 3 devpor $end
$var tri1 1 4 devoe $end
$var wire 1 5 quotient[0]~output_o $end
$var wire 1 6 quotient[1]~output_o $end
$var wire 1 7 quotient[2]~output_o $end
$var wire 1 8 quotient[3]~output_o $end
$var wire 1 9 remainder[0]~output_o $end
$var wire 1 : remainder[1]~output_o $end
$var wire 1 ; remainder[2]~output_o $end
$var wire 1 < remainder[3]~output_o $end
$var wire 1 = ready~output_o $end
$var wire 1 > clk~input_o $end
$var wire 1 ? start~input_o $end
$var wire 1 @ count[1]~1_combout $end
$var wire 1 A reset~input_o $end
$var wire 1 B count[0]~0_combout $end
$var wire 1 C state~0_combout $end
$var wire 1 D state~q $end
$var wire 1 E word1[0]~input_o $end
$var wire 1 F dividend~4_combout $end
$var wire 1 G word2[3]~input_o $end
$var wire 1 H load~combout $end
$var wire 1 I word2[2]~input_o $end
$var wire 1 J Add0~0_combout $end
$var wire 1 K word1[1]~input_o $end
$var wire 1 L dividend~6_combout $end
$var wire 1 M dividend[1]~feeder_combout $end
$var wire 1 N dividend~7_combout $end
$var wire 1 O word1[2]~input_o $end
$var wire 1 P dividend~8_combout $end
$var wire 1 Q dividend[2]~feeder_combout $end
$var wire 1 R word1[3]~input_o $end
$var wire 1 S dividend~9_combout $end
$var wire 1 T word2[0]~input_o $end
$var wire 1 U Add0~2_combout $end
$var wire 1 V Add0~4_cout $end
$var wire 1 W Add0~5_combout $end
$var wire 1 X word2[1]~input_o $end
$var wire 1 Y Add0~1_combout $end
$var wire 1 Z Add0~6 $end
$var wire 1 [ Add0~8 $end
$var wire 1 \ Add0~10 $end
$var wire 1 ] Add0~12 $end
$var wire 1 ^ Add0~13_combout $end
$var wire 1 _ lt~3_combout $end
$var wire 1 ` shift~combout $end
$var wire 1 a dividend[4]~0_combout $end
$var wire 1 b word1[4]~input_o $end
$var wire 1 c Add0~7_combout $end
$var wire 1 d dividend[5]~1_combout $end
$var wire 1 e word1[5]~input_o $end
$var wire 1 f Add0~9_combout $end
$var wire 1 g dividend[6]~2_combout $end
$var wire 1 h word1[6]~input_o $end
$var wire 1 i Add0~11_combout $end
$var wire 1 j dividend[7]~10_combout $end
$var wire 1 k dividend[7]~3_combout $end
$var wire 1 l dividend[7]~feeder_combout $end
$var wire 1 m word1[7]~input_o $end
$var wire 1 n lt~0_combout $end
$var wire 1 o lt~1_combout $end
$var wire 1 p lt~2_combout $end
$var wire 1 q dividend~5_combout $end
$var wire 1 r sign~0_combout $end
$var wire 1 s sign~q $end
$var wire 1 t quotient~0_combout $end
$var wire 1 u quotient~1_combout $end
$var wire 1 v Add2~0_combout $end
$var wire 1 w quotient~2_combout $end
$var wire 1 x ready~0_combout $end
$var wire 1 y dividend [7] $end
$var wire 1 z dividend [6] $end
$var wire 1 { dividend [5] $end
$var wire 1 | dividend [4] $end
$var wire 1 } dividend [3] $end
$var wire 1 ~ dividend [2] $end
$var wire 1 !! dividend [1] $end
$var wire 1 "! dividend [0] $end
$var wire 1 #! divisor [3] $end
$var wire 1 $! divisor [2] $end
$var wire 1 %! divisor [1] $end
$var wire 1 &! divisor [0] $end
$var wire 1 '! count [1] $end
$var wire 1 (! count [0] $end
$upscope $end
$upscope $end
$enddefinitions $end
#0
$dumpvars
0!
0"
0#
b0 $
b0 %
x)
x(
x'
x&
x*
x.
x-
x,
x+
0/
10
x1
12
13
14
x5
x6
x7
x8
x9
x:
x;
x<
x=
0>
0?
x@
0A
xB
xC
0D
0E
xF
0G
xH
0I
xJ
0K
xL
xM
xN
0O
xP
xQ
0R
xS
0T
xU
xV
xW
0X
xY
xZ
x[
x\
x]
x^
x_
x`
xa
0b
xc
xd
0e
xf
xg
0h
xi
xj
xk
xl
0m
xn
xo
xp
xq
xr
0s
xt
xu
xv
xw
xx
0"!
0!!
0~
0}
0|
0{
0z
0y
0&!
0%!
0$!
0#!
0(!
0'!
$end
#830
0w
#1026
0U
#1027
0Y
#1028
0J
#1110
0t
#1139
1V
#1157
0u
#1227
0`
#1309
0v
#1673
0Z
#1729
0W
#1739
1[
#1805
0\
#1871
1]
#2185
0c
#2251
0f
#2317
0i
#2383
0^
#2641
0o
#2774
0n
#2876
0a
#2891
0j
#2945
0_
#3009
0p
#3078
0d
#3155
0g
#3523
0k
#3821
0x
#4042
0S
#4056
0l
#4232
0L
#4233
0N
#4236
0F
0P
#4418
0H
#4601
0B
#4603
0@
#4604
0C
#4748
0M
#4968
0r
#5072
0Q
#5094
0q
#5980
0:
0-
#6141
06
0(
#6187
07
0'
#6324
0;
0,
#6799
08
0&
#7861
09
0.
#8609
0<
0+
#8916
0=
0*
#9226
05
0)
#40000
1!
#40650
1>
#60000
1"
1#
b10000000 $
b10010000 $
b100 %
b101 %
#60640
1A
#60650
1?
#60660
1m
#60670
1b
#60700
1I
1T
#64228
1x
#64617
1N
#64838
1H
#65001
1B
#65003
1@
#65004
1C
#65410
1r
#69349
1=
1*
#80000
0!
#80756
0>
#120000
1!
#120650
1>
#123127
1s
#123246
1&!
1$!
#123310
1'!
1(!
1D
#123334
1|
1y
#123655
1J
1U
#123748
0H
#123754
0B
#123986
0J
#123987
0U
#124002
1Y
#124023
0x
#124270
0]
#124271
0V
#124318
1n
#124321
1i
#124337
1Z
#124403
0[
#124469
1\
#124501
1q
#124806
1^
#124807
1W
#124867
1p
#124873
1c
#124939
1f
#124981
0i
#125157
1`
#125166
0n
#125181
1_
#125212
0q
#125558
1o
#125719
1q
#125758
1d
#125843
0`
#126245
1a
#126249
1g
#129118
0=
0*
#131266
19
1.
#132076
1<
1+
#140000
0#
b10000 $
b0 $
b1 %
b0 %
#140756
0?
#140766
0m
#140776
0b
#140806
0I
0T
#145734
0r
#160000
0!
#160756
0>
#200000
1!
#200650
1>
#203288
1"!
#203310
0(!
#203334
1{
1z
0y
#203719
1B
#204055
0@
#204057
0Y
#204073
1J
1U
#204135
1v
#204167
1j
#204235
0\
#204297
0f
#204384
1n
#204472
1]
#204473
1V
#204622
1w
#204645
1u
#204646
1t
#204675
1L
#204710
1f
#204762
0c
#204771
1i
#204808
1\
#204837
1[
#204896
0q
#204903
0\
#204984
0^
#205054
1`
#205093
1k
#205201
1M
#205349
0f
#205375
0n
#205411
0a
#205640
1l
#205739
0o
#205928
1q
#206049
0`
#206439
0d
0g
#206451
1a
#209264
1:
1-
#209548
1;
1,
#209619
17
1'
#209626
16
1(
#210611
18
1&
#211943
0<
0+
#212643
15
1)
#240000
0!
#240756
0>
#280000
1!
#280650
1>
#283310
0'!
1(!
#283334
0{
0z
1y
#283386
1!!
#283739
0B
#283986
0J
#283987
0U
#284002
1Y
#284240
0j
#284270
0]
#284271
0V
#284318
1n
#284439
0t
#284610
0[
#284624
1P
#284661
1c
#284676
1\
#284806
1^
#284830
0q
#284988
1`
#285029
0k
#285146
1f
#285166
0n
#285188
0i
#285345
0a
#285346
1o
#285476
1Q
#285546
1d
#285562
0l
#285719
1q
#285840
0`
#286242
1a
#286246
1g
#289314
0:
0-
#289470
06
0(
#289658
0;
0,
#292076
1<
1+
#320000
0!
#320756
0>
#360000
1!
#360650
1>
#363310
0(!
#363334
1{
1z
0y
#363386
1~
#364057
0Y
#364073
1J
1U
#364090
0C
#364167
1j
#364235
0\
#364297
0f
#364337
1S
#364384
1n
#364472
1]
#364473
1V
#364493
0u
#364710
1f
#364762
0c
#364771
1i
#364808
1\
#364837
1[
#364896
0q
#364903
0\
#364984
0^
#365054
1`
#365093
1k
#365349
0f
#365375
0n
#365411
0a
#365640
1l
#365739
0o
#365928
1q
#366049
0`
#366439
0d
0g
#366451
1a
#369264
1:
1-
#369523
07
0'
#369548
1;
1,
#371943
0<
0+
#400000
0!
#400756
0>
#440000
1!
#440650
1>
#443310
0D
#443334
1}
0{
0z
1y
#443986
0J
#443987
0U
#444002
1Y
#444116
1x
#444233
0N
#444252
0Z
#444270
0]
#444271
0V
#444275
0v
#444318
1n
#444524
0q
#444578
1F
#444783
0W
#444789
0w
#444806
1^
#445166
0n
#445446
1q
#445930
0a
#449237
1=
1*
#449314
0:
0-
#449658
0;
0,
#450758
08
0&
#452076
1<
1+
#480000
0!
#480756
0>
#520000
b1000 %
b1010 %
b10000000 $
b10010000 $
b1011 %
1!
#520650
1>
#520660
1m
#520670
1b
#520700
1G
1X
1T
#525094
1r
#525403
0r
#560000
1#
0!
#560650
1?
#560756
0>
#564609
0L
#564612
0F
0P
#564617
1N
#564780
0S
#564838
1H
#565001
1B
#565003
1@
#565004
1C
#565125
0M
#565448
0Q
#565470
0q
#600000
b11 %
b1 %
b10000 $
b0 $
b0 %
1!
#600650
1>
#600766
0m
#600776
0b
#600806
0G
0X
0T
#603127
0s
#603246
1%!
0$!
1#!
#603288
0"!
#603310
1'!
1(!
1D
#603334
0}
#603386
0!!
0~
#603655
1J
#603675
0Y
#603748
0H
#603754
0B
#603972
1t
#603973
1u
#604023
0x
#604171
0j
#604200
1U
#604201
1Y
#604212
0J
#604274
1V
#604292
1f
#604369
1c
#604390
1\
#604496
0t
#604501
1q
#604543
0u
#604675
1o
#604838
1W
#604859
0\
#604871
0c
#604915
0f
#604936
1Z
#605002
0[
#605068
1\
#605185
1g
#605254
1d
#605426
1r
#605472
1c
#605538
1f
#605580
0i
#605608
0o
#605734
0r
#605764
0d
#605819
0g
#606000
1a
#606157
1o
#606357
1d
#606431
1g
#606451
0k
#606984
0l
#609118
0=
0*
#612514
05
0)
#640000
0#
0!
#640756
0>
0?
#680000
1!
#680650
1>
#683288
1"!
#683310
0(!
#683334
1{
1z
0y
#683719
1B
#684055
0@
#684057
0U
0Y
#684073
1J
#684135
1v
#684167
1j
#684235
0\
#684297
0f
#684336
0V
#684384
1n
#684472
1]
#684675
1L
#684710
1f
#684762
0c
#684771
1i
#684808
1\
#684837
1[
#684896
0q
#684903
0\
#684984
0^
#685054
1`
#685093
1k
#685201
1M
#685349
0f
#685375
0n
#685411
0a
#685640
1l
#685739
0o
#685928
1q
#686049
0`
#686439
0d
0g
#686451
1a
#689264
1:
1-
#689548
1;
1,
#691943
0<
0+
#692643
15
1)
#720000
0!
#720756
0>
#760000
1!
#760650
1>
#763310
0'!
1(!
#763334
0{
0z
1y
#763386
1!!
#763739
0B
#763986
0J
#764002
1Y
#764003
1U
#764240
0j
#764270
0]
#764318
1n
#764408
1V
#764445
1t
#764610
0[
#764624
1P
#764661
1c
#764676
1\
#764806
1^
#764830
0q
#764988
1`
#765029
0k
#765146
1f
#765166
0n
#765188
0i
#765345
0a
#765346
1o
#765476
1Q
#765546
1d
#765562
0l
#765719
1q
#765840
0`
#766242
1a
#766246
1g
#769314
0:
0-
#769425
16
1(
#769658
0;
0,
#772076
1<
1+
#800000
0!
#800756
0>
#840000
1!
#840650
1>
#843310
0(!
#843334
1{
1z
0y
#843386
1~
#844057
0U
0Y
#844073
1J
#844090
0C
#844167
1j
#844235
0\
#844297
0f
#844336
0V
#844337
1S
#844384
1n
#844472
1]
#844486
1u
#844710
1f
#844762
0c
#844771
1i
#844808
1\
#844837
1[
#844896
0q
#844903
0\
#844984
0^
#845054
1`
#845093
1k
#845349
0f
#845375
0n
#845411
0a
#845640
1l
#845739
0o
#845928
1q
#846049
0`
#846439
0d
0g
#846451
1a
#849264
1:
1-
#849460
17
1'
#849548
1;
1,
#851943
0<
0+
#880000
0!
#880756
0>
#920000
1!
#920650
1>
#923310
0D
#923334
1}
0{
0z
1y
#923986
0J
#924002
1Y
#924003
1U
#924091
1w
#924116
1x
#924233
0N
#924270
0]
#924275
0v
#924318
1n
#924408
1V
#924474
0Z
#924524
0q
#924578
1F
#924806
1^
#924920
0W
#925166
0n
#925446
1q
#926067
0a
#929237
1=
1*
#929314
0:
0-
#929658
0;
0,
#930080
18
1&
#932076
1<
1+
#960000
0!
#960756
0>
#980000
0"
#980746
0A
#984567
0x
#989662
0=
0*
