lab7/detector/simulation/qsim/detector.msim.vcd
$comment
	File created using the following command:
		vcd file detector.msim.vcd -direction
$end
$date
	Thu May 02 10:36:40 2024
$end
$version
	ModelSim Version 10.5b
$end
$timescale
	1ps
$end

$scope module detector_vlg_vec_tst $end
$var reg 1 ! clk $end
$var reg 1 " in $end
$var reg 1 # reset $end
$var wire 1 $ out $end

$scope module i1 $end
$var wire 1 % gnd $end
$var wire 1 & vcc $end
$var wire 1 ' unknown $end
$var tri1 1 ( devclrn $end
$var tri1 1 ) devpor $end
$var tri1 1 * devoe $end
$var wire 1 + out~output_o $end
$var wire 1 , clk~input_o $end
$var wire 1 - clk~inputclkctrl_outclk $end
$var wire 1 . in~input_o $end
$var wire 1 / reset~input_o $end
$var wire 1 0 reset~inputclkctrl_outclk $end
$var wire 1 1 state.A~q $end
$var wire 1 2 ns.B~0_combout $end
$var wire 1 3 state.B~q $end
$var wire 1 4 ns.C~0_combout $end
$var wire 1 5 state.C~q $end
$var wire 1 6 ns.D~0_combout $end
$var wire 1 7 state.D~q $end
$var wire 1 8 Selector0~0_combout $end
$var wire 1 9 state.E~q $end
$upscope $end
$upscope $end
$enddefinitions $end
#0
$dumpvars
0!
0"
0#
x$
0%
1&
x'
1(
1)
1*
x+
0,
x-
0.
0/
x0
01
x2
03
x4
05
x6
07
x8
09
$end
#173
0-
00
#467
04
06
08
#3492
0+
0$
#3579
02
#30000
1!
#30730
1,
#30917
1-
#40000
1#
#40720
1/
#40907
10
#60000
0!
#60836
0,
#61009
0-
#90000
1!
#90730
1,
#90917
1-
#120000
0!
#120836
0,
#121009
0-
#150000
1!
#150730
1,
#150917
1-
#180000
1"
0!
#180709
1.
#180836
0,
#181009
0-
#184026
12
#210000
1!
#210730
1,
#210917
1-
#213293
11
13
#213688
02
#213704
14
#240000
0!
#240836
0,
#241009
0-
#270000
1!
#270730
1,
#270917
1-
#273293
03
15
#273704
16
#273760
04
#300000
0!
#300836
0,
#301009
0-
#330000
1!
#330730
1,
#330917
1-
#333293
05
17
#333704
18
#333760
06
#360000
0!
#360836
0,
#361009
0-
#390000
1!
#390730
1,
#390917
1-
#393293
07
19
#396827
1+
1$
#420000
0!
#420836
0,
#421009
0-
#450000
1!
#450730
1,
#450917
1-
#480000
0!
#480836
0,
#481009
0-
#510000
1!
#510730
1,
#510917
1-
#540000
0!
#540836
0,
#541009
0-
#570000
1!
#570730
1,
#570917
1-
#580000
0"
#580815
0.
#584564
08
#600000
0!
#600836
0,
#601009
0-
#630000
1!
#630730
1,
#630917
1-
#633293
01
09
#636785
0+
0$
#660000
0!
#660836
0,
#661009
0-
#690000
1!
#690730
1,
#690917
1-
#720000
0!
#720836
0,
#721009
0-
#750000
1!
#750730
1,
#750917
1-
#780000
0!
#780836
0,
#781009
0-
#800000
1"
#800709
1.
#804026
12
#810000
1!
#810730
1,
#810917
1-
#813293
11
13
#813688
02
#813704
14
#840000
0!
#840836
0,
#841009
0-
#870000
1!
#870730
1,
#870917
1-
#873293
03
15
#873704
16
#873760
04
#900000
0!
#900836
0,
#901009
0-
#920000
0"
#920815
0.
#924398
06
#930000
1!
#930730
1,
#930917
1-
#933293
01
05
#960000
0!
#960836
0,
#961009
0-
#990000
1!
#990730
1,
